Module 1/Lab 04/Waveforms/jk_ff_async.vcd
$version Generated by VerilatedVcd $end
$timescale 1ps $end
 $scope module jk_ff_tb $end
  $var wire 1 # preset $end
  $var wire 1 $ clk $end
  $var wire 1 % j $end
  $var wire 1 & k $end
  $var wire 1 ' q $end
  $var wire 1 ( qn $end
  $scope module dut $end
   $var wire 1 # preset $end
   $var wire 1 $ clk $end
   $var wire 1 % j $end
   $var wire 1 & k $end
   $var wire 1 ' q $end
   $var wire 1 ( qn $end
  $upscope $end
 $upscope $end
$enddefinitions $end


#0
1#
0$
0%
0&
1'
0(
#5
1$
#7
0#
#10
0$
#15
1$
#20
0$
#25
1$
#27
1&
#30
0$
#35
1$
0'
1(
#37
1%
0&
#40
0$
#45
1$
1'
0(
#47
1&
#50
0$
#55
1$
0'
1(
#60
1#
0$
1'
0(
#64
0#
#65
1$
0'
1(
#70
0$
#75
1$
1'
0(
