Module 1/Lab 10/Waveforms/apb_uart_dump.vcd
$version Generated by VerilatedVcd $end
$timescale 1ps $end
 $scope module apb_uart_tb $end
  $var wire 1 1 clk $end
  $var wire 1 # rst_n $end
  $var wire 32 $ PADDR [31:0] $end
  $var wire 32 % PWDATA [31:0] $end
  $var wire 1 & PWRITE $end
  $var wire 1 ' PSEL $end
  $var wire 1 ( PENABLE $end
  $var wire 32 ) PRDATA [31:0] $end
  $var wire 1 * PREADY $end
  $scope module dut $end
   $var wire 1 1 clk $end
   $var wire 1 # rst_n $end
   $var wire 32 $ PADDR [31:0] $end
   $var wire 32 2 PWDATA [31:0] $end
   $var wire 1 & PWRITE $end
   $var wire 1 ' PSEL $end
   $var wire 1 ( PENABLE $end
   $var wire 32 ) PRDATA [31:0] $end
   $var wire 1 * PREADY $end
   $scope module dut $end
    $var wire 1 1 clk $end
    $var wire 1 # rst_n $end
    $var wire 32 $ PADDR [31:0] $end
    $var wire 32 2 PWDATA [31:0] $end
    $var wire 1 & PWRITE $end
    $var wire 1 ' PSEL $end
    $var wire 1 ( PENABLE $end
    $var wire 32 ) PRDATA [31:0] $end
    $var wire 1 * PREADY $end
    $var wire 8 + tx_data [7:0] $end
    $var wire 1 , tx_write $end
    $var wire 8 - rx_data [7:0] $end
    $var wire 1 . rx_ready $end
    $var wire 1 / tx_busy $end
    $scope module uart_inst $end
     $var wire 1 1 clk $end
     $var wire 1 # rst_n $end
     $var wire 8 + tx_data [7:0] $end
     $var wire 1 , tx_write $end
     $var wire 8 - rx_data [7:0] $end
     $var wire 1 . rx_ready $end
     $var wire 1 / tx_busy $end
     $var wire 8 0 tx_reg [7:0] $end
    $upscope $end
   $upscope $end
  $upscope $end
 $upscope $end
$enddefinitions $end


#0
0#
b00000000000000000000000000000000 $
b00000000000000000000000000000000 %
0&
0'
0(
b00000000000000000000000000000000 )
0*
b00000000 +
0,
b00000000 -
0.
0/
b00000000 0
01
b00000000000000000000000000000000 2
#10000
11
#20000
01
#30000
11
#40000
01
#50000
11
#60000
01
#70000
11
#80000
01
#90000
11
#100000
1#
01
#110000
b00000000000000000000000010100101 %
1&
1'
11
#120000
01
#130000
1(
1*
1,
11
#140000
01
#150000
0'
0(
0*
0,
1.
11
#160000
01
#170000
b00000000000000000000000000000100 $
0&
1'
0.
11
#180000
01
#190000
1(
1*
11
#200000
01
#210000
11
#220000
01
#230000
0'
0(
0*
11
#240000
01
#250000
b00000000000000000000000000001000 $
1'
11
#260000
01
#270000
1(
1*
11
#280000
01
#290000
11
#300000
01
#310000
0'
0(
0*
11
#320000
01
#330000
b00000000000000000000000000000000 $
b00000000000000000000000000111100 %
1&
1'
11
#340000
01
#350000
1(
1*
1,
11
#360000
01
#370000
0'
0(
0*
0,
1.
11
#380000
01
#390000
b00000000000000000000000000000100 $
0&
1'
0.
11
#400000
01
#410000
1(
1*
11
#420000
01
#430000
11
#440000
01
#450000
0'
0(
0*
11
#460000
01
#470000
b00000000000000000000000000001000 $
1'
11
#480000
01
#490000
1(
1*
11
#500000
01
#510000
11
#520000
01
#530000
0'
0(
0*
11
