Module 1/Lab 12/Waveforms/dump.vcd
$version Generated by VerilatedVcd $end
$timescale 1ps $end
 $scope module cdc_sync_tb $end
  $var wire 1 # clk $end
  $var wire 1 $ async_in $end
  $var wire 1 % synced $end
  $scope module uut $end
   $var wire 1 # clk $end
   $var wire 1 $ async_in $end
   $var wire 1 % synced $end
   $var wire 1 & stage1 $end
  $upscope $end
 $upscope $end
$enddefinitions $end


#0
0#
0$
0%
0&
#5
1#
#10
0#
#12
1$
#15
1#
1&
#19
0$
#20
0#
#25
1#
1$
1%
#30
0#
#34
0$
#35
1#
0&
#40
0#
#45
1#
0%
